<svg xmlns="http://www.w3.org/2000/svg" width="24" height="24" fill="currentColor" viewBox="0 0 24 24">
  <path d="M3.445 10a.197.197 0 01-.193-.24C4.269 5.317 8.247 2 13 2c5.523 0 10 4.477 10 10s-4.477 10-10 10c-4.753 0-8.731-3.316-9.748-7.76a.197.197 0 01.193-.24H9.5a.5.5 0 01.5.5v1.992a.25.25 0 00.402.198l5.84-4.492a.25.25 0 000-.396l-5.84-4.492a.25.25 0 00-.402.198V9.5a.5.5 0 01-.5.5H3.445z"/>
  <path d="M11.4 9.3a.25.25 0 00-.4.2v1.25a.25.25 0 01-.25.25h-9.5a.25.25 0 00-.25.25v1.5c0 .138.112.25.25.25h9.5a.25.25 0 01.25.25v1.25a.25.25 0 00.4.2l3.333-2.5a.25.25 0 000-.4L11.4 9.3z"/>
</svg>
